…
```r
child_mortality
```

```
## # A tibble: 44,926 x 10
##     year country continent population child_mort survival_per_wo~
##    <int> <chr>   <chr>          <int>      <dbl>            <dbl>
##  1  1957 Afghan~ Asia         9147286       378.             4.75
##  2  1958 Afghan~ Asia         9314915       372.             4.80
##  3  1959 Afghan~ Asia         9489453       366.             4.85
##  4  1960 Afghan~ Asia         9671046       361.             4.89
##  5  1961 Afghan~ Asia         9859928       355.             4.94
##  6  1962 Afghan~ Asia        10056480       350.             4.98
##  7  1963 Afghan~ Asia        10261254       344.             5.02
##  8  1964 Afghan~ Asia        10474903       339.             5.07
##  9  1965 Afghan~ Asia        10697983       334.             5.11
## 10  1966 Afghan~ Asia        10927724       329.             5.15
## # ... with 44,916 more rows, and 4 more variables: deaths_per_woman <dbl>,
## #   poverty <dbl>, education <dbl>, health_exp <dbl>
```
…
